{
  "name": "od6s",
  "title": "OpenD6 Space",
  "description": "OpenD6 Space System for FoundryVTT",
  "version": "0.3.0",
  "minimumCoreVersion": "9",
  "compatibleCoreVersion": "9",
  "templateVersion": 2,
  "author": "seumas",
  "esmodules": [
    "module/od6s.js"
  ],
  "styles": [
    "css/od6s.css"
  ],
  "scripts": [],
  "packs": [
    {
      "name": "weapons",
      "label": "Weapons",
      "path": "packs/weapons.db",
      "entity": "Item",
      "system": "od6s"
    },
    {
      "name": "armor",
      "label": "Armor",
      "path": "packs/armor.db",
      "entity": "Item",
      "system": "od6s"
    },
    {
      "name": "natural",
      "label": "Natural Combat Items",
      "path": "packs/natural.db",
      "entity": "Item",
      "system": "od6s"
    },
    {
      "name": "advantages",
      "label": "Advantages",
      "path": "packs/advantages.db",
      "entity": "Item",
      "system": "od6s"
    },
    {
      "name": "disadvantages",
      "label": "Disadvantages",
      "path": "packs/disadvantages.db",
      "entity": "Item",
      "system": "od6s"
    },
    {
      "name": "skills",
      "label": "Skills",
      "path": "packs/skills.db",
      "entity": "Item",
      "system": "od6s"
    },
    {
      "name": "metaphysics-skills",
      "label": "Metaphysics Skills",
      "path": "packs/metaphysics-skills.db",
      "entity": "Item",
      "system": "od6s"
    },
    {
      "name": "specialabilities",
      "label": "Special Abilities",
      "path": "packs/specialabilities.db",
      "entity": "Item",
      "system": "od6s"
    },
    {
      "name": "gear",
      "label": "Gear",
      "path": "packs/gear.db",
      "entity": "Item",
      "system": "od6s"
    },
    {
      "name": "cybernetics",
      "label": "Cybernetics",
      "path": "packs/cybernetics.db",
      "entity": "Item",
      "system": "od6s"
    },
    {
      "name": "vehicle-weapons",
      "label": "Vehicle Weapons",
      "path": "packs/vehicle-weapons.db",
      "entity": "Item",
      "system": "od6s"
    },
    {
      "name": "vehicle-gear",
      "label": "Vehicle Gear",
      "path": "packs/vehicle-gear.db",
      "entity": "Item",
      "system": "od6s"
    },
    {
      "name": "starship-weapons",
      "label": "Starship Weapons",
      "path": "packs/starship-weapons.db",
      "entity": "Item",
      "system": "od6s"
    },
    {
      "name": "starship-gear",
      "label": "Starship Gear",
      "path": "packs/starship-gear.db",
      "entity": "Item",
      "system": "od6s"
    },
    {
      "name": "vehicles",
      "label": "Vehicles",
      "path": "packs/vehicles.db",
      "entity": "Actor",
      "system": "od6s"
    },
    {
      "name": "starships",
      "label": "Starships",
      "path": "packs/starships.db",
      "entity": "Actor",
      "system": "od6s"
    },
    {
      "name": "character-templates",
      "label": "Character Templates",
      "path": "packs/character-templates.db",
      "entity": "Item",
      "system": "od6s"
    },
    {
      "name": "macros",
      "label": "Macros",
      "path": "packs/macros.db",
      "entity": "Macro",
      "system": "od6s"
    }
  ],
  "languages": [
    {
      "lang": "en",
      "name": "English",
      "path": "lang/en.json"
    },
    {
      "lang": "fr",
      "name": "Français",
      "path": "lang/fr.json"
    },
    {
      "lang": "es",
      "name": "Español",
      "path": "lang/es.json"
    }
  ],
  "bugs": "https://gitlab.com/vtt2/opend6-space/-/issues",
  "flags": {
    "allowBugReporter": true
  },
  "dependencies": [
    {
      "name": "bug-reporter",
      "type": "module"
    },
    {
      "name": "socketlib",
      "type": "module"
    }
  ],
  "socket": true,
  "gridDistance": 1,
  "gridUnits": "m",
  "primaryTokenAttribute": "health",
  "secondaryTokenAttribute": "power",
  "url": "https://gitlab.com/vtt2/opend6-space/",
  "manifest": "https://gitlab.com/api/v4/projects/23950825/packages/generic/od6s/0.0.0/system.json",
  "download": "https://gitlab.com/api/v4/projects/23950825/packages/generic/od6s/0.0.0/od6s.zip",
  "license": "https://gitlab.com/vtt2/opend6-space/-/blob/master/LICENSE"
}
